láadan,english,original,description
ba,they,she/it/he beloved,3rd person: singular: beloved
ba,it,she/it/he beloved,3rd person: singular: beloved
ban,they,they beloved,3rd person: many: beloved
bazh,they,they beloved,3rd person: several
be,they,she/it/he,3rd person: singular
be,it,she/it/he,3rd person: singular
behid,he,he ,
ben,they,they ,3rd person: many: neutral
beneth,them,them,3rd person; many; neutral; object 
beth,they,her/him/it,3rd person; singular; neutral; object 
beth,it,her/him/it,3rd person; singular; neutral; object 
beye,somebody,somebody/someone/something,look to verb to distinguish: 3rd person singular indefinite pronoun
beye,something,somebody/someone/something,look to verb to distinguish: 3rd person singular indefinite pronoun
beyen,somethings,several (2 to 5) unidentified somebodies or somethings,3rd person several indefinite pronoun: English doesn't have specific words for these forms. They're going to be introduced with descriptions that make it clear that they're not identified; and then they're all going to be referred to with they/them/their/theirs from that point on. Some mountains loomed up ahead of us; they were beautiful.
beyezh,somethings,many (more than 5) unidentified somebodies or somethings,3rd person many indefinite pronoun: English doesn't have specific words for these forms. They're going to be introduced with descriptions that make it clear that they're not identified; and then they're all going to be referred to with they/them/their/theirs from that point on. Some mountains loomed up ahead of us; they were beautiful.
beyóo,themselves,herself/himself/itself ,
beyóo,itself,herself/himself/itself ,
beyóohid,himself,himself ,
beyóon,themselves,themselves,3rd person; many; reflexive pronoun
beyóozh,themselves,themselves,3rd person; several; reflexive pronoun
bezh,they,they,pronoun: 3rd person: neutral
bezheth,them,them,3rd person; several; neutral; object 
bi,they,she/it/he,3rd person: singular: honored
bi,it,she/it/he,3rd person: singular: honored
bin,they,they,3rd person: many: honored
bizh,they,they,3rd person: several: honored
hi,that,that,Demonstrative pronoun: singular
hi,this,this,Demonstrative pronoun: singular
hin,these,these,Demonstrative pronoun: many
hin,those,those,Demonstrative pronoun: many
hinethed,those,those,Demonstrative pronoun: many 
hinethoma,these,these,Demonstrative pronoun: many 
hithed,that,that,Demonstrative pronoun: singular 
hithoma,this,this,Demonstrative pronoun: singular 
hizh,these,these,Demonstrative pronoun: several
hizh,those,those,Demonstrative pronoun: several
hizhethed,those,those,Demonstrative pronoun: several 
hizhethoma,these,these,Demonstrative pronoun: several 
la,I,I,1st person: singular: beloved
lan,we,we,1st person: many: beloved
lazh,we,we,1st person: several: beloved
le,I,I,1st person: singular: neutral
len,we,we,1st person: many: neutral
leneth,us,us,1st person; many; neutral; object 
lenetha,our,our,by reason of birth
lenetho,our ,our ,
lenethoth,our,our,other; object
leth,me,me,1st person; singular; neutral; object 
leyóo,myself,myself,1st person; singular; neutral; reflexive pronoun
leyóon,ourselves,ourselves,1st person; many; neutral; reflexive pronoun
leyóozh,ourselves,ourselves,1st person; several; neutral; reflexive pronoun
lezh,ourselves,ourselves,1st person; several; neutral
lhebe,they,she/it/he,3rd person; singular; despised
lhebe,it,she/it/he,3rd person; singular; despised
lheben,they,they,3rd person; many; despised
lhebezh,they,they,3rd person; several; despised
lhele,I,I,1st person; singular; despised
lhelen,we ,we ,1st person; many; despised
lhelezh,we ,we ,1st person; several; despised
lhene,you ,you ,2nd person; singular; despised
lhenen,you ,you ,2nd person; many; despised
lhenezh,you ,you ,2nd person; several; despised
li,I,I,1st person; singular; honored
lin,we,we,1st person; many; honored
lizh,we,we,1st person; several; honored
na,you,you,2nd person; singular; beloved
nan,you,you,2nd person; many; beloved
natha,your,your,2nd person; singular; beloved; by reason of birth
nazh,you,you,2nd person; severa;: beloved
ne,you,you,2nd person; singular; neutral
nen,you,you,2nd person; many; neutral
neneth,you,you,2nd person; many; neutral; object 
neth,you,you,2nd person; singular; neutral; object 
neyóo,yourself,yourself,2nd person; singular; neutral 
neyóon,yourselves,yourselves,2nd person; many; neutral 
neyóozh,yourselves,yourselves,2nd person; several; neutral 
nezh,you,you,2nd person; several; neutral 
nezheth,you,you,2nd person; several; neutral; object 
ni,you,you,2nd person; singular; honored
nin,you,you,2nd person; many; honored
nizh,you,you,2nd person; several; honored
